module gitlab.com/svenfinke/edm

go 1.12

require (
	github.com/phayes/permbits v0.0.0-20190612203442-39d7c581d2ee // indirect
	github.com/rs/xid v1.2.1
	github.com/spf13/cobra v0.0.5
	github.com/spf13/viper v1.4.0 // indirect
	gopkg.in/yaml.v2 v2.2.2
)
